{"types":[],"declarations":[],

"functions":
  [
    {"line":1,"id":"foo","parameters":[{"line":1,"type":"int","id":"i"}],"return_type":"int","declarations":[],"body":[{"line":3,"stmt":"return","exp":{"line":3,"exp":"id","id":"i"}}]},

    {"line":6,"id":"bar","parameters":[{"line":6,"type":"int","id":"i"}],"return_type":"int","declarations":[],"body":[{"line":8,"stmt":"if","guard":{"line":8,"exp":"binary","operator":">","lft":{"line":8,"exp":"id","id":"i"},"rht":{"line":8,"exp":"num","value":"0"}},"then":{"stmt":"block","list":[{"line":10,"stmt":"return","exp":{"line":10,"exp":"num","value":"1"}}]},"else":{"stmt":"block","list":[{"line":14,"stmt":"if","guard":{"line":14,"exp":"binary","operator":"<","lft":{"line":14,"exp":"id","id":"i"},"rht":{"line":14,"exp":"num","value":"0"}},"then":{"stmt":"block","list":[{"line":16,"stmt":"return","exp":{"line":16,"exp":"unary","operator":"-","operand":{"line":16,"exp":"num","value":"1"}}}]},"else":{"stmt":"block","list":[{"line":20,"stmt":"return","exp":{"line":20,"exp":"num","value":"0"}}]}}]}}]
    }
  ]}
